C:\Users\petr\IdeaProjects\java_web_step_tinder\src\main\java\ua\petr\dao\LikeDao.java
C:\Users\petr\IdeaProjects\java_web_step_tinder\src\main\java\ua\petr\services\LikeService.java
C:\Users\petr\IdeaProjects\java_web_step_tinder\src\main\java\ua\petr\controller\LoginServlet.java
C:\Users\petr\IdeaProjects\java_web_step_tinder\src\main\java\ua\petr\dao\UserDao.java
C:\Users\petr\IdeaProjects\java_web_step_tinder\src\main\java\ua\petr\model\User.java
C:\Users\petr\IdeaProjects\java_web_step_tinder\src\main\java\ua\petr\services\DefaultLikeService.java
C:\Users\petr\IdeaProjects\java_web_step_tinder\src\main\java\ua\petr\controller\HelloServlet.java
C:\Users\petr\IdeaProjects\java_web_step_tinder\src\main\java\ua\petr\JettyRun.java
C:\Users\petr\IdeaProjects\java_web_step_tinder\src\main\java\ua\petr\model\Like.java
C:\Users\petr\IdeaProjects\java_web_step_tinder\src\main\java\ua\petr\model\Message.java
C:\Users\petr\IdeaProjects\java_web_step_tinder\src\main\java\ua\petr\controller\LoginFilter.java
C:\Users\petr\IdeaProjects\java_web_step_tinder\src\main\java\ua\petr\services\UserService.java
C:\Users\petr\IdeaProjects\java_web_step_tinder\src\main\java\ua\petr\services\CookieUtil.java
C:\Users\petr\IdeaProjects\java_web_step_tinder\src\main\java\ua\petr\controller\MessageServlet.java
C:\Users\petr\IdeaProjects\java_web_step_tinder\src\main\java\ua\petr\dao\UserJdbcDao.java
C:\Users\petr\IdeaProjects\java_web_step_tinder\src\main\java\ua\petr\services\DefaultUserService.java
C:\Users\petr\IdeaProjects\java_web_step_tinder\src\main\java\ua\petr\controller\FileServlet.java
C:\Users\petr\IdeaProjects\java_web_step_tinder\src\main\java\ua\petr\dao\MessageJdbcDao.java
C:\Users\petr\IdeaProjects\java_web_step_tinder\src\main\java\ua\petr\controller\LikeServlet.java
C:\Users\petr\IdeaProjects\java_web_step_tinder\src\main\java\ua\petr\dao\MessageDao.java
C:\Users\petr\IdeaProjects\java_web_step_tinder\src\main\java\ua\petr\services\MessageService.java
C:\Users\petr\IdeaProjects\java_web_step_tinder\src\main\java\ua\petr\dao\LikeJdbcDao.java
C:\Users\petr\IdeaProjects\java_web_step_tinder\src\main\java\ua\petr\services\DefaultMessageService.java
C:\Users\petr\IdeaProjects\java_web_step_tinder\src\main\java\ua\petr\controller\TemplateEngine.java
